{
	"id": 121948,
	"name": "John Doe",
	"phone": "(555) 555-5555",
	"username": "john1234",
	"email": [
		"john@doe.com",
		"jdoe@hotmail.com",
		"j.dizzle@alumni.sarahlawrence.edu"
	],
	"credit_card": {
		"card_number": "4111 1111 1111 1111",
		"expiration": "01/15",
		"name": "John X. Doe",
		"cvc": "123"
	}
}